<svg xmlns="http://www.w3.org/2000/svg" xmlns:xlink="http://www.w3.org/1999/xlink" viewBox="0 0 2051.166 1078">
  <defs>
    <style>
      .cls-1 {
        fill: url(#linear-gradient);
      }

      .cls-2 {
        opacity: 0.42;
        fill: url(#linear-gradient-2);
      }

      .cls-3 {
        opacity: 0.4;
      }

      .cls-3, .cls-4 {
        fill: url(#linear-gradient-3);
      }

      .cls-5 {
        stroke: #707070;
        opacity: 0.38;
        fill: url(#linear-gradient-5);
      }

      .cls-6 {
        stroke: none;
      }

      .cls-7 {
        fill: none;
      }
    </style>
    <linearGradient id="linear-gradient" x1="1.074" y1="0.434" x2="0.017" y2="0.5" gradientUnits="objectBoundingBox">
      <stop offset="0" stop-color="#71ceee"/>
      <stop offset="1" stop-color="#074282"/>
    </linearGradient>
    <linearGradient id="linear-gradient-2" x1="0.477" y1="0.5" x2="0" gradientUnits="objectBoundingBox">
      <stop offset="0" stop-color="#215c98"/>
      <stop offset="1" stop-color="#173a6d"/>
    </linearGradient>
    <linearGradient id="linear-gradient-3" x1="0.01" y1="0.229" x2="0.989" y2="0.657" gradientUnits="objectBoundingBox">
      <stop offset="0" stop-color="#327aad"/>
      <stop offset="1" stop-color="#7ad1f2"/>
    </linearGradient>
    <linearGradient id="linear-gradient-5" x1="1.056" y1="0.671" x2="0" y2="0.629" gradientUnits="objectBoundingBox">
      <stop offset="0" stop-color="#3796d5" stop-opacity="0"/>
      <stop offset="0.77" stop-color="#0b1d29" stop-opacity="0.302"/>
      <stop offset="1"/>
    </linearGradient>
  </defs>
  <g id="Group_479" data-name="Group 479" transform="translate(0.166 1)">
    <g id="Group_476" data-name="Group 476">
      <rect id="Rectangle_55" data-name="Rectangle 55" class="cls-1" width="2051" height="1078" transform="translate(0 -1)"/>
      <path id="Path_140" data-name="Path 140" class="cls-2" d="M10.834,226.247H765.389s-173.778,86.5-362.417,230.673S10.834,802.942,10.834,802.942Z" transform="translate(-11 -226)"/>
      <path id="Path_144" data-name="Path 144" class="cls-3" d="M0,0S580.3,35.144,834.513,84.152,1143,156.413,1143,156.413V489.746l-308.487-67.6L9.338,326.576Z" transform="translate(908 509)"/>
      <path id="Path_143" data-name="Path 143" class="cls-4" d="M0,0S580.3-16.138,834.513,32.87,1143,119.117,1143,119.117V489.746l-308.487-67.6L9.338,326.576Z" transform="translate(908 374)"/>
    </g>
    <g id="Rectangle_58" data-name="Rectangle 58" class="cls-5">
      <rect class="cls-6" width="2051" height="1077"/>
      <rect class="cls-7" x="0.5" y="0.5" width="2050" height="1076"/>
    </g>
  </g>
</svg>
