<svg xmlns="http://www.w3.org/2000/svg" viewBox="0 0 267.06 266.207">
  <defs>
    <style>
      .cls-1 {
        fill: #202539;
      }

      .cls-2 {
        fill: none;
        stroke: #63bce0;
        stroke-width: 4px;
      }
    </style>
  </defs>
  <g id="Group_481" data-name="Group 481" transform="translate(-870.712 -940.791)">
    <path id="Path_145" data-name="Path 145" class="cls-1" d="M-32.721-49.434s30.2,33.486,63.6,39.875C63.6-3.3,87.882,5.255,101.425,19.42c16.7,17.47,19.065,40.321,22.635,78.507,2.216,23.712,23.234,49.931,23.234,49.931L0,114Z" transform="translate(929.181 1082.229) rotate(-47)"/>
    <line id="Line_9" data-name="Line 9" class="cls-2" x1="16.032" y2="16.032" transform="translate(1013.28 1051.469)"/>
    <line id="Line_10" data-name="Line 10" class="cls-2" x2="16.032" y2="16.032" transform="translate(999.4 1050.817)"/>
  </g>
</svg>
